{

  "builders": [

    {

      "vm_name": "centos7_minimal",

      "guest_os_type": "RedHat_64",

      "iso_checksum_type": "sha256",

      "iso_checksum": "27bd866242ee058b7a5754e83d8ee8403e216b93d130d800852a96f41c34d86a",

      "iso_url": "https://mirror.its.sfu.ca/mirror/CentOS/7/isos/x86_64/CentOS-7-x86_64-Minimal-1611.iso",

      "type": "virtualbox-iso",

      "ssh_password": "vagrant",

      "ssh_username": "vagrant",

      "ssh_wait_timeout": "50000s",

      "headless": "true",

      "vboxmanage": [

        [

          "modifyvm",

          "{{.Name}}",

          "--memory",

          "2048"

        ],

        [

          "modifyvm",

          "{{.Name}}",

          "--cpus",

          "2"

        ]

      ],

      "http_directory": ".",

      "boot_command": [

        "<up><wait><tab><wait> text ks=http://{{ .HTTPIP }}:{{ .HTTPPort }}/ks.cfg<enter><wait>"
      ],

      "shutdown_command": "echo 'vagrant' | sudo -S /sbin/halt -h -p"

    }

  ],

  "provisioners": [

    {

      "type": "shell",

      "scripts": [

        	
	"vagrant.sh",
	
	"virtualbox.sh",
	"cleanup.sh"
        
        ],

      "execute_command": "echo 'vagrant' | {{.Vars}} sudo -S -E bash '{{.Path}}'"

    }

  ],

  "post-processors": [

    {

      "type": "vagrant",

      "compression_level": 9,

      "output": "centos7.box"

    }

  ]

}


